…
    hanna_all <- read_excel(here::here('processed', 'Hanna_processed.xlsx'), skip = 1, sheet = 1) %>%
      janitor::clean_names()
    hanna_all

    ## # A tibble: 144 x 9
    ##      dmr chr_start_end closest_tss region hgnc_id cgi_density number_probes
    ##    <dbl> <chr>         <chr>       <chr>  <chr>   <chr>               <dbl>
    ##  1     1 chr1:4002497… PPIEL       Promo… 33195   HC                      9
    ##  2     2 chr1:6851183… DIRAS3 (DM… Promo… 687     HC                     10
    ##  3     3 chr1:6851578… DIRAS3 (DM… Promo… 687     HC                     13
    ##  4     4 chr4:8961792… NAP1L5      Promo… 19968   HC                      8
    ##  5     5 chr6:3848898… FAM50B      Promo… 18789   HC                     28
    ##  6     6 chr6:1443284… PLAGL1      Promo… 9046    HC                     18
    ##  7     7 chr7:9428550… PEG10/SGCE  Promo… 14005/… HC                     55
    ##  8     8 chr7:1301303… MEST/MESTI… Promo… 7028/1… HC                     56
    ##  9     9 chr7:1548615… HTR5A       Promo… 5300    HC                     14
    ## 10    10 chr8:3760551… ERLIN2      Promo… 1356    IC                      6
    ## # … with 134 more rows, and 2 more variables: methylated_allele <chr>,
    ## #   court_et_al_2014_dmr <chr>

    hanna_pl <- read_excel(here::here('processed', 'Hanna_processed.xlsx'), skip = 1, sheet = 2) %>%
      janitor::clean_names()
    hanna_pl

    ## # A tibble: 88 x 13
    ##    gene_name ucsc_coordinate… chromosome  start    end dmr_id ensembl_gene
    ##    <chr>     <chr>            <chr>       <dbl>  <dbl> <chr>  <chr>       
    ##  1 THAP3     chr1:6685210-66… chr1       6.69e6 6.69e6 THAP3  THAP3       
    ##  2 AKR7A3    chr1:19609057-1… chr1       1.96e7 1.96e7 AKR7A3 AKR7A3      
    ##  3 C1orf216  chr1:36179477-3… chr1       3.62e7 3.62e7 C1orf… C1orf216    
    ##  4 ACOT11    chr1:55013807-5… chr1       5.50e7 5.51e7 ACOT11 ACOT11      
    ##  5 PCSK9     chr1:55505149-5… chr1       5.55e7 5.55e7 PCSK9  PCSK9       
    ##  6 IL12RB2   chr1:67773047-6… chr1       6.78e7 6.79e7 IL12R… IL12RB2     
    ##  7 TNR       chr1:175291935-… chr1       1.75e8 1.76e8 TNR    TNR         
    ##  8 CACNA1E   chr1:181452686-… chr1       1.81e8 1.82e8 CACNA… CACNA1E     
    ##  9 G0S2      chr1:209848670-… chr1       2.10e8 2.10e8 G0S2   G0S2        
    ## 10 LINC00467 chr1:211556097-… chr1       2.12e8 2.12e8 LINC0… LINC00467   
    ## # … with 78 more rows, and 6 more variables: ensembl_chr <dbl>,
    ## #   ensembl_start <dbl>, ensembl_end <dbl>, te <chr>,
    ## #   x2nd_trimester_placenta <chr>, x3rd_trimester_placenta <chr>
…
      # filter to where there are enough cases to make an inference about status
      filter(n_all > 1) %>%
      
      mutate(status = case_when(
        n_mat_methylated == n_all ~ 'Maternal',
        n_bi_methylated > 0  & n_mat_methylated > 0~ 'Polymorphic',
      ))

    sandel_confirmed 

    ## # A tibble: 29 x 7
    ##    Gene  description n_mat_methylated n_pat_methylated n_bi_methylated n_all
    ##    <chr> <chr>                  <dbl>            <dbl>           <dbl> <dbl>
    ##  1 FRMD3 2 maternal…                2               NA               3     5
    ##  2 KCNQ1 8 maternal…                8               NA              NA     8
    ##  3 TMEM… 2 maternal…                2               NA              NA     2
    ##  4 TET3  5 maternal…                5               NA               3     8
    ##  5 SPHK… 4 maternal…                4               NA               5     9
    ##  6 ZNF3… 2 maternal…                2               NA              NA     2
    ##  7 C3OR… 2 maternal…                2               NA               1     3
    ##  8 FGF12 2 maternal…                2               NA               3     5
    ##  9 PDE6B 3 maternal…                3               NA              NA     3
    ## 10 STX1… 3 maternal…                3               NA              NA     3
    ## # … with 19 more rows, and 1 more variable: status <chr>

    sandel_confirmed <- sandel_confirmed %>% 
      mutate(methylated_allele = if_else(n_bi_methylated == n_all, 'bi', 'm', missing = 'm'),
             percent_biallelic = n_bi_methylated*100 / n_all) %>%
      select(Gene, methylated_allele, percent_biallelic, n_all) %>%
      dplyr::rename(n_used_to_verify_allele_specific_methylation = n_all) %>%
      
      # remove 100% biallelic
      filter(methylated_allele != 'bi')
    sandel_confirmed

    ## # A tibble: 22 x 4
    ##    Gene     methylated_allele percent_biallel… n_used_to_verify_allele_specific…
    ##    <chr>    <chr>                        <dbl>                             <dbl>
    ##  1 FRMD3    m                             60                                   5
    ##  2 KCNQ1    m                             NA                                   8
    ##  3 TMEM247  m                             NA                                   2
    ##  4 TET3     m                             37.5                                 8
    ##  5 SPHKAP   m                             55.6                                 9
    ##  6 ZNF385D  m                             NA                                   2
    ##  7 C3ORF62  m                             33.3                                 3
    ##  8 FGF12    m                             60                                   5
    ##  9 PDE6B    m                             NA                                   3
    ## 10 STX18-A… m                             NA                                   3
    ## # … with 12 more rows
…
